\relax 
\citation{R1}
\citation{R2}
\citation{R3}
\@writefile{toc}{\contentsline {section}{\numberline {1}Introduction}{1}\protected@file@percent }
\@writefile{lof}{\contentsline {figure}{\numberline {1}{\ignorespaces Concept sketch of aerodynamic setting of a centrifugal compressor stage (meridional plane) accepted in Rinna}}{2}\protected@file@percent }
\newlabel{F1}{{1}{2}}
\@writefile{toc}{\contentsline {section}{\numberline {2}Structure of the source-code}{2}\protected@file@percent }
\@writefile{toc}{\contentsline {section}{\numberline {3}Concept of geometry generation}{3}\protected@file@percent }
\@writefile{toc}{\contentsline {subsection}{\numberline {3.1}Entire stage}{3}\protected@file@percent }
\@writefile{toc}{\contentsline {subsection}{\numberline {3.2}Impeller}{3}\protected@file@percent }
\@writefile{lof}{\contentsline {figure}{\numberline {2}{\ignorespaces Definition (names) of basic curves implementing 2D representation of entire geometric domain generated by GeoGe (meridional plane)}}{4}\protected@file@percent }
\newlabel{F2}{{2}{4}}
\citation{R4}
\citation{R4}
\@writefile{lof}{\contentsline {figure}{\numberline {3}{\ignorespaces General definition of basic points and curves comprising 2D impeller domain generated in GeoGe (meridional plane)}}{5}\protected@file@percent }
\newlabel{F3}{{3}{5}}
\@writefile{lof}{\contentsline {figure}{\numberline {4}{\ignorespaces Definition of basic variables (dimensions, curves' names, points, parameters) used as input for generation of 2D impeller domain (meridional plane)}}{6}\protected@file@percent }
\newlabel{F4}{{4}{6}}
\@writefile{toc}{\contentsline {subsection}{\numberline {3.3}Radial diffuser (Diffuser)}{6}\protected@file@percent }
\@writefile{lof}{\contentsline {figure}{\numberline {5}{\ignorespaces Definition of basic variables (dimensions, curves' names, points, parameters) used as input for generation of 2D diffuser domain (meridional plane)}}{7}\protected@file@percent }
\newlabel{F5}{{5}{7}}
\citation{R4}
\citation{R4}
\@writefile{toc}{\contentsline {subsection}{\numberline {3.4}Return channel}{8}\protected@file@percent }
\@writefile{lof}{\contentsline {figure}{\numberline {6}{\ignorespaces Definition of basic variables (dimensions, curves' names, points, parameters) used as input for generation of 2D return channel domain (meridional plane)}}{9}\protected@file@percent }
\newlabel{F6}{{6}{9}}
\citation{R4}
\citation{R4}
\@writefile{toc}{\contentsline {section}{\numberline {4}Examples of application}{11}\protected@file@percent }
\@writefile{toc}{\contentsline {subsection}{\numberline {4.1}Low flow-coefficient stage}{11}\protected@file@percent }
\@writefile{toc}{\contentsline {subsubsection}{\numberline {4.1.1}Impeller input}{11}\protected@file@percent }
\@writefile{lof}{\contentsline {figure}{\numberline {7}{\ignorespaces Impeller: set of basic input parameters}}{11}\protected@file@percent }
\@writefile{lof}{\contentsline {figure}{\numberline {8}{\ignorespaces Impeller: set of shape parameters for shroud quasi-streamline}}{11}\protected@file@percent }
\@writefile{lof}{\contentsline {figure}{\numberline {9}{\ignorespaces Impeller: set of shape parameters for hub quasi-streamline}}{11}\protected@file@percent }
\@writefile{lof}{\contentsline {figure}{\numberline {10}{\ignorespaces Impeller: leading and trailing edges' indices}}{12}\protected@file@percent }
\@writefile{lof}{\contentsline {figure}{\numberline {11}{\ignorespaces Impeller: blade angles and shape parameters}}{12}\protected@file@percent }
\@writefile{toc}{\contentsline {subsubsection}{\numberline {4.1.2}Diffuser input}{12}\protected@file@percent }
\@writefile{lof}{\contentsline {figure}{\numberline {12}{\ignorespaces Diffuser: set of basic input parameters}}{12}\protected@file@percent }
\@writefile{lof}{\contentsline {figure}{\numberline {13}{\ignorespaces Diffuser: set of shape parameters for shroud quasi-streamline}}{12}\protected@file@percent }
\@writefile{lof}{\contentsline {figure}{\numberline {14}{\ignorespaces Diffuser: set of shape parameters for hub quasi-streamline}}{12}\protected@file@percent }
\@writefile{lof}{\contentsline {figure}{\numberline {15}{\ignorespaces Diffuser: leading and trailing edges' indices}}{13}\protected@file@percent }
\@writefile{lof}{\contentsline {figure}{\numberline {16}{\ignorespaces Diffuser: vane angles and shape parameters}}{13}\protected@file@percent }
\@writefile{toc}{\contentsline {subsubsection}{\numberline {4.1.3}RC input}{13}\protected@file@percent }
\@writefile{lof}{\contentsline {figure}{\numberline {17}{\ignorespaces RC: set of basic input parameters}}{13}\protected@file@percent }
\@writefile{lof}{\contentsline {figure}{\numberline {18}{\ignorespaces RC: set of shape parameters for shroud quasi-streamline}}{13}\protected@file@percent }
\@writefile{lof}{\contentsline {figure}{\numberline {19}{\ignorespaces RC: set of shape parameters for hub quasi-streamline}}{14}\protected@file@percent }
\@writefile{lof}{\contentsline {figure}{\numberline {20}{\ignorespaces RC: set of shape parameters for intermediate quasi-streamlines}}{14}\protected@file@percent }
\@writefile{lof}{\contentsline {figure}{\numberline {21}{\ignorespaces RC: leading and trailing edges' indices}}{14}\protected@file@percent }
\@writefile{lof}{\contentsline {figure}{\numberline {22}{\ignorespaces RC: vane angles and shape parameters}}{14}\protected@file@percent }
\@writefile{toc}{\contentsline {subsubsection}{\numberline {4.1.4}GeoGe.py output}{14}\protected@file@percent }
\@writefile{toc}{\contentsline {paragraph}{Text output}{14}\protected@file@percent }
\@writefile{lof}{\contentsline {figure}{\numberline {23}{\ignorespaces Impeller: meridional profile plot}}{24}\protected@file@percent }
\@writefile{lof}{\contentsline {figure}{\numberline {24}{\ignorespaces Impeller: distribution of meanline blade angles along radius}}{25}\protected@file@percent }
\@writefile{lof}{\contentsline {figure}{\numberline {25}{\ignorespaces Impeller: blade-to-blade plot of blade (beta-development stage)}}{25}\protected@file@percent }
\@writefile{lof}{\contentsline {figure}{\numberline {26}{\ignorespaces Diffuser: meridional profile plot}}{26}\protected@file@percent }
\@writefile{lof}{\contentsline {figure}{\numberline {27}{\ignorespaces Diffuser: distribution of meanline blade angles along radius}}{26}\protected@file@percent }
\@writefile{lof}{\contentsline {figure}{\numberline {28}{\ignorespaces Diffuser: blade-to-blade plot of vane (beta-development stage)}}{27}\protected@file@percent }
\@writefile{lof}{\contentsline {figure}{\numberline {29}{\ignorespaces RC: meridional profile plot}}{27}\protected@file@percent }
\@writefile{lof}{\contentsline {figure}{\numberline {30}{\ignorespaces RC: distribution of meanline vane angles along radius (x-axis must be flipped!)}}{28}\protected@file@percent }
\@writefile{lof}{\contentsline {figure}{\numberline {31}{\ignorespaces RC: blade-to-blade plot of vane (beta-development stage)}}{28}\protected@file@percent }
\@writefile{lof}{\contentsline {figure}{\numberline {32}{\ignorespaces Stage: meridional profile plot}}{29}\protected@file@percent }
\@writefile{toc}{\contentsline {paragraph}{Graphical output}{29}\protected@file@percent }
\@writefile{toc}{\contentsline {subsection}{\numberline {4.2}Medium flow-coefficient stage}{30}\protected@file@percent }
\@writefile{toc}{\contentsline {subsubsection}{\numberline {4.2.1}Impeller input}{30}\protected@file@percent }
\@writefile{lof}{\contentsline {figure}{\numberline {33}{\ignorespaces Impeller: set of design parameters}}{30}\protected@file@percent }
\@writefile{toc}{\contentsline {subsubsection}{\numberline {4.2.2}Diffuser input}{31}\protected@file@percent }
\@writefile{lof}{\contentsline {figure}{\numberline {34}{\ignorespaces Diffuser: set of design parameters}}{31}\protected@file@percent }
\@writefile{toc}{\contentsline {subsubsection}{\numberline {4.2.3}RC input}{32}\protected@file@percent }
\@writefile{lof}{\contentsline {figure}{\numberline {35}{\ignorespaces Return channel: set of design parameters}}{32}\protected@file@percent }
\@writefile{toc}{\contentsline {subsubsection}{\numberline {4.2.4}GeoGe.py output}{32}\protected@file@percent }
\@writefile{toc}{\contentsline {paragraph}{Text output}{32}\protected@file@percent }
\@writefile{lof}{\contentsline {figure}{\numberline {36}{\ignorespaces Impeller: meridional profile plot}}{45}\protected@file@percent }
\@writefile{lof}{\contentsline {figure}{\numberline {37}{\ignorespaces Impeller: distribution of meanline blade angles along radius}}{46}\protected@file@percent }
\@writefile{lof}{\contentsline {figure}{\numberline {38}{\ignorespaces Impeller: blade-to-blade plot of blade (beta-development stage)}}{46}\protected@file@percent }
\@writefile{lof}{\contentsline {figure}{\numberline {39}{\ignorespaces Diffuser: meridional profile plot}}{47}\protected@file@percent }
\@writefile{lof}{\contentsline {figure}{\numberline {40}{\ignorespaces Diffuser: distribution of meanline blade angles along radius}}{47}\protected@file@percent }
\@writefile{lof}{\contentsline {figure}{\numberline {41}{\ignorespaces Diffuser: blade-to-blade plot of vane (beta-development stage)}}{48}\protected@file@percent }
\@writefile{lof}{\contentsline {figure}{\numberline {42}{\ignorespaces RC: meridional profile plot}}{48}\protected@file@percent }
\@writefile{lof}{\contentsline {figure}{\numberline {43}{\ignorespaces RC: distribution of meanline vane angles along radius (x-axis must be flipped!)}}{49}\protected@file@percent }
\@writefile{lof}{\contentsline {figure}{\numberline {44}{\ignorespaces RC: blade-to-blade plot of vane (beta-development stage)}}{49}\protected@file@percent }
\@writefile{lof}{\contentsline {figure}{\numberline {45}{\ignorespaces Stage: meridional profile plot}}{50}\protected@file@percent }
\@writefile{toc}{\contentsline {paragraph}{Graphical output}{50}\protected@file@percent }
\@writefile{toc}{\contentsline {subsection}{\numberline {4.3}High flow-coefficient stage}{51}\protected@file@percent }
\@writefile{toc}{\contentsline {subsubsection}{\numberline {4.3.1}Impeller input}{51}\protected@file@percent }
\@writefile{lof}{\contentsline {figure}{\numberline {46}{\ignorespaces Impeller: set of design parameters}}{51}\protected@file@percent }
\@writefile{toc}{\contentsline {subsubsection}{\numberline {4.3.2}Diffuser input}{52}\protected@file@percent }
\@writefile{lof}{\contentsline {figure}{\numberline {47}{\ignorespaces Diffuser: set of design parameters}}{52}\protected@file@percent }
\@writefile{toc}{\contentsline {subsubsection}{\numberline {4.3.3}RC input}{53}\protected@file@percent }
\@writefile{lof}{\contentsline {figure}{\numberline {48}{\ignorespaces Return channel: set of design parameters}}{53}\protected@file@percent }
\@writefile{toc}{\contentsline {subsubsection}{\numberline {4.3.4}GeoGe.py output}{53}\protected@file@percent }
\@writefile{toc}{\contentsline {paragraph}{Text output}{53}\protected@file@percent }
\@writefile{lof}{\contentsline {figure}{\numberline {49}{\ignorespaces Impeller: meridional profile plot}}{69}\protected@file@percent }
\@writefile{lof}{\contentsline {figure}{\numberline {50}{\ignorespaces Impeller: distribution of meanline blade angles along radius}}{70}\protected@file@percent }
\@writefile{lof}{\contentsline {figure}{\numberline {51}{\ignorespaces Impeller: blade-to-blade plot of blade (beta-development stage)}}{70}\protected@file@percent }
\@writefile{lof}{\contentsline {figure}{\numberline {52}{\ignorespaces Diffuser: meridional profile plot}}{71}\protected@file@percent }
\@writefile{lof}{\contentsline {figure}{\numberline {53}{\ignorespaces Diffuser: distribution of meanline blade angles along radius}}{71}\protected@file@percent }
\@writefile{lof}{\contentsline {figure}{\numberline {54}{\ignorespaces Diffuser: blade-to-blade plot of vane (beta-development stage)}}{72}\protected@file@percent }
\@writefile{lof}{\contentsline {figure}{\numberline {55}{\ignorespaces RC: meridional profile plot}}{72}\protected@file@percent }
\@writefile{lof}{\contentsline {figure}{\numberline {56}{\ignorespaces RC: distribution of meanline vane angles along radius (x-axis must be flipped!)}}{73}\protected@file@percent }
\@writefile{lof}{\contentsline {figure}{\numberline {57}{\ignorespaces RC: blade-to-blade plot of vane (beta-development stage)}}{73}\protected@file@percent }
\bibcite{R1}{1}
\bibcite{R2}{2}
\bibcite{R3}{3}
\bibcite{R4}{4}
\@writefile{lof}{\contentsline {figure}{\numberline {58}{\ignorespaces Stage: meridional profile plot}}{74}\protected@file@percent }
\@writefile{toc}{\contentsline {paragraph}{Graphical output}{74}\protected@file@percent }
